<?xml version="1.0" encoding="UTF-8"?>
<svg width="26px" height="24px" viewBox="0 0 26 24" version="1.1" xmlns="http://www.w3.org/2000/svg" xmlns:xlink="http://www.w3.org/1999/xlink">
    <!-- Generator: Sketch 54.1 (76490) - https://sketchapp.com -->
    <title>check-icon</title>
    <desc>Created with Sketch.</desc>
    <g id="Symbols" stroke="none" stroke-width="1" fill="none" fill-rule="evenodd">
        <g id="check-item-2" transform="translate(0.000000, -3.000000)" fill="#999999">
            <g id="check-item" transform="translate(0.000000, -2.000000)">
                <g id="check-icon" transform="translate(0.000000, 5.000000)">
                    <g id="Path">
                        <path d="M23.8116836,9.97244082 C23.2316094,9.97244082 22.7614258,10.4259918 22.7614258,10.9854367 L22.7614258,12.0057306 C22.7598516,14.6671837 21.6837969,17.1687673 19.7315117,19.0495837 C17.7806484,20.9290286 15.1882656,21.9638694 12.4311484,21.9638694 C12.4291172,21.9638694 12.4270859,21.9638694 12.4250547,21.9638694 C6.72882031,21.9607347 2.09726562,17.4884571 2.10051562,11.9942694 C2.10208984,9.33286531 3.17814453,6.83128163 5.13048047,4.95036735 C7.08134375,3.07092245 9.67377734,2.03608163 12.4308438,2.03608163 C12.432875,2.03608163 12.4349063,2.03608163 12.4369375,2.03608163 C13.8929375,2.03686531 15.3055703,2.32711837 16.6355312,2.89866122 C17.1654844,3.12641633 17.7861836,2.89665306 18.0223164,2.38564898 C18.2583477,1.8746449 18.0202852,1.27582041 17.4904336,1.04806531 C15.8900117,0.360244898 14.1902109,0.0110204082 12.4381055,0.0100897959 C12.4354648,0.0100897959 12.4334336,0.0100897959 12.430793,0.0100897959 C9.11330469,0.0100897959 5.99340625,1.25554286 3.64599219,3.51702857 C1.29675,5.78027755 0.0019296875,8.79051429 -7.31811055e-17,11.9931918 C-0.00187890625,15.1957714 1.28928516,18.2074286 3.63588672,20.4733224 C5.98248828,22.7392163 9.10340234,23.988098 12.4238359,23.9899592 C12.4264258,23.9899592 12.4285078,23.9899592 12.4311484,23.9899592 C15.7486367,23.9899592 18.8685352,22.7445551 21.2159492,20.4830204 C23.5651914,18.2197224 24.8600117,15.2094857 24.8619414,12.0063184 L24.8619414,10.9854857 C24.8619414,10.4259918 24.3917578,9.97244082 23.8116836,9.97244082 Z" fill-rule="nonzero"></path>
                        <path d="M25.6923672,1.41075918 C25.282207,1.0152 24.6172266,1.0152 24.2070664,1.41075918 L12.4309453,12.7690286 L9.75939453,10.1922612 C9.34928516,9.79665306 8.68425391,9.79665306 8.27414453,10.1922612 C7.86398437,10.5878694 7.86398437,11.2292571 8.27414453,11.6248653 L11.6883711,14.9179592 C11.8934258,15.1157878 12.1622617,15.2146776 12.4310469,15.2146776 C12.699832,15.2146776 12.9686172,15.1157878 13.1737227,14.9179592 L25.6923672,2.84336327 C26.1025273,2.4477551 26.1025273,1.80636735 25.6923672,1.41075918 Z" fill-rule="nonzero"></path>
                    </g>
                </g>
            </g>
        </g>
    </g>
</svg>